Local Neighbor Match Test — st_lnmt • tidyrgeoda
…
    Value

    A tibble with two columns "Cardinality" and "Probability".

    Author

    Wenbo Lv lyu.geosocial@gmail.com

    Examples

library(sf)
guerry = read_sf(system.file("extdata","Guerry.shp",package = "rgeoda"))
st_lnmt(guerry,c('Crm_prs','Crm_prp','Litercy','Donatns',
'Infants','Suicids'),6)
#> # A tibble: 85 × 2
#>    Cardinality Probability
#>          <int>       <dbl>
#>  1           2     0.0526 
#>  2           3     0.00374
#>  3           2     0.0526 
#>  4           2     0.0526 
#>  5           0    NA      
#>  6           1     0.312  
#>  7           1     0.312  
#>  8           2     0.0526 
#>  9           3     0.00374
#> 10           1     0.312  
#> # ℹ 75 more rows
…
